class
…
Morgan Booker

11/12/2019

sheets_deauth()
x <- read_sheet("13NhlT-Oik5P4NOKRWwrJ7xZQlddFNk81HHEw9wkWglM")

## Reading from 'NES_1992'

## Range "'NES_1992'"

x

## # A tibble: 1,356 x 9
##    income   age black female south dvote rvote partisanship dem_adv
##     <dbl> <dbl> <dbl>  <dbl> <dbl> <dbl> <dbl>        <dbl>   <dbl>
##  1      4    41     0      1     0     0     1      -0.463        1
##  2      2    83     0      1     1     0     1       0.123        1
##  3      1    67     1      1     0     1     0       3.34         0
##  4      2    28     0      0     1     0     1      -0.293        1
##  5      3    71     0      1     0     1     0      -0.0333       1
##  6      4    53     0      1     0     1     0      -0.434        1
##  7      3    33     0      1     0     0     0      -0.127        0
##  8      2    60     0      0     0     0     1       0.0145       0
##  9      4    53     0      1     0     0     1      -0.434        0
## 10      3    23     0      0     0     0     0      -0.433        1
## #  with 1,346 more rows
…
